{
  "project_info": {
    "project_number": "757396653770",
    "firebase_url": "https://annisa-modul4.firebaseio.com",
    "project_id": "annisa-modul4",
    "storage_bucket": "annisa-modul4.appspot.com"
  },
  "client": [
    {
      "client_info": {
        "mobilesdk_app_id": "1:757396653770:android:c7cbe0bef77d2c40",
        "android_client_info": {
          "package_name": "com.example.annisa_1202164121_si4001_pab_modul4"
        }
      },
      "oauth_client": [
        {
          "client_id": "757396653770-dl249dcfet8tq9cskatpu0eohr6548f4.apps.googleusercontent.com",
          "client_type": 1,
          "android_info": {
            "package_name": "com.example.annisa_1202164121_si4001_pab_modul4",
            "certificate_hash": "158d3f0015338cd9fa50a13dc0f16ef80dbb8475"
          }
        },
        {
          "client_id": "757396653770-q6esnpaoc7l7vll363flgb1oskukin0r.apps.googleusercontent.com",
          "client_type": 1,
          "android_info": {
            "package_name": "com.example.annisa_1202164121_si4001_pab_modul4",
            "certificate_hash": "c364722b2f4a1a5622e207017d82e1e228b59dd5"
          }
        },
        {
          "client_id": "757396653770-6a31isjigk2n1pb5ol8lrfosm5o22icn.apps.googleusercontent.com",
          "client_type": 1,
          "android_info": {
            "package_name": "com.example.annisa_1202164121_si4001_pab_modul4",
            "certificate_hash": "e040731eda625fc821dde9d806b48fb3594cea8a"
          }
        }
      ],
      "api_key": [
        {
          "current_key": "AIzaSyB19yaLXxCBet4bu-uRKVphwm7oWfOm_-U"
        }
      ],
      "services": {
        "appinvite_service": {
          "other_platform_oauth_client": [
            {
              "client_id": "757396653770-n2m344ijp3cdbvhfn59ogf4up35q7ish.apps.googleusercontent.com",
              "client_type": 3
            }
          ]
        }
      }
    }
  ],
  "configuration_version": "1"
}